cm-1;longitud nm;longitud cm-1;cm-1;nm
350;785;12.739;12.389;807.1772
420;785;12.739;12.319;811.7639
518;785;12.739;12.221;818.2735
847;785;12.739;11.892;840.9118
919;785;12.739;11.820;846.0342
1064;785;12.739;11.675;856.5418
1125;785;12.739;11.614;861.0407
1263;785;12.739;11.476;871.3949
1367;785;12.739;11.372;879.3641
1460;785;12.739;11.279;886.6149